^E:\STUDY\IPD\IPD_PRIVATE\WORKWITHUSB(LAB4)\LIBRARY\LIBRARY\X64\DEBUG\LIBRARY.OBJ
E:\STUDY\IPD\IPD_PRIVATE\WORKWITHUSB(LAB4)\LIBRARY\X64\DEBUG\LIBRARY.ILK
E:\STUDY\IPD\IPD_PRIVATE\WORKWITHUSB(LAB4)\LIBRARY\X64\DEBUG\LIBRARY.DLL
E:\STUDY\IPD\IPD_PRIVATE\WORKWITHUSB(LAB4)\LIBRARY\X64\DEBUG\LIBRARY.PDB
